%YAML 1.1
%TAG !u! tag:unity3d.com,2011:
--- !u!687078895 &4343727234628468602
SpriteAtlas:
  m_ObjectHideFlags: 0
  m_PrefabParentObject: {fileID: 0}
  m_PrefabInternal: {fileID: 0}
  m_Name: CardsBackground_Normal
  m_EditorData:
    textureSettings:
      anisoLevel: 1
      compressionQuality: 50
      maxTextureSize: 2048
      textureCompression: 1
      colorSpace: 1
      filterMode: 1
      generateMipMaps: 0
      readable: 0
      crunchedCompression: 0
    platformSettings:
    - m_BuildTarget: WebGL
      m_MaxTextureSize: 2048
      m_TextureFormat: 12
      m_TextureCompression: 1
      m_CompressionQuality: 50
      m_CrunchedCompression: 0
      m_AllowsAlphaSplitting: 0
      m_Overridden: 0
    packingParameters:
      paddingPower: 2
      blockOffset: 1
      allowAlphaSplitting: 0
      enableRotation: 1
      enableTightPacking: 1
    packedHash:
      serializedVersion: 2
      Hash: ea8ea6bc2f7309511466d790c7aa7f59
    variantMultiplier: 0.5
    bindAsDefault: 0
    finalFormat: 12
    hashString: ea8ea6bc2f7309511466d790c7aa7f59
    totalSpriteSurfaceArea: 0
    packables: []
    packedSpriteRenderDataKeys:
    - 065adcf78bfee3347b3f96eed1173dbb: 21300000
  m_MasterAtlas: {fileID: 4343727234628468602, guid: 4a1a60fff866d4449bc0f725c860cf36,
    type: 2}
  m_PackedSprites:
  - {fileID: 21300000, guid: 065adcf78bfee3347b3f96eed1173dbb, type: 3}
  m_PackedSpriteNamesToIndex:
  - Gwent_Monsters_1920x1080_EN_Background
  m_Tag: CardsBackground
  m_IsVariant: 1
