%YAML 1.1
%TAG !u! tag:unity3d.com,2011:
--- !u!687078895 &4343727234628468602
SpriteAtlas:
  m_ObjectHideFlags: 0
  m_PrefabParentObject: {fileID: 0}
  m_PrefabInternal: {fileID: 0}
  m_Name: Cards_P_1_Normal
  m_EditorData:
    textureSettings:
      anisoLevel: 1
      compressionQuality: 50
      maxTextureSize: 2048
      textureCompression: 1
      colorSpace: 1
      filterMode: 1
      generateMipMaps: 0
      readable: 0
      crunchedCompression: 0
    platformSettings:
    - m_BuildTarget: WebGL
      m_MaxTextureSize: 2048
      m_TextureFormat: 12
      m_TextureCompression: 1
      m_CompressionQuality: 50
      m_CrunchedCompression: 0
      m_AllowsAlphaSplitting: 0
      m_Overridden: 0
    packingParameters:
      paddingPower: 2
      blockOffset: 1
      allowAlphaSplitting: 0
      enableRotation: 1
      enableTightPacking: 1
    packedHash:
      serializedVersion: 2
      Hash: 3c4fb296aed20ed1a7d586b6a0e552a8
    variantMultiplier: 0.5
    bindAsDefault: 0
    finalFormat: 12
    hashString: 3c4fb296aed20ed1a7d586b6a0e552a8
    totalSpriteSurfaceArea: 0
    packables: []
    packedSpriteRenderDataKeys:
    - 6604c5c3a342f8845a00ef1b99f06e2c: 21300000
    - d46a239d48d63a347bc8d700b8d977ae: 21300000
    - eab200b4a064ccf448c8fec66c6b1cd0: 21300000
    - e5ddb47c3e161fe4cb02059f220a71f8: 21300000
    - afdd88475603ac44898f50a50c0daf5e: 21300000
    - 21fcd09f376c5e140863d908d5f27630: 21300000
    - a32852f271f2a6d4aa4ee2ca5d70e660: 21300000
    - b79d931af3144664fa70596c186884b7: 21300000
    - 92363d15f8361094084503c0c874347e: 21300000
    - 05ea8fcf3204bcf4ebfcf7590d1e2551: 21300000
    - 6ae37693a3223bd45b8e40a8819a13a1: 21300000
    - 751912536d1b4b9428746e726ecc988f: 21300000
    - 999f31a6df9a088489605e0b1fcefe3c: 21300000
    - 2f4500ae2c0ffae4ba369162da959e46: 21300000
    - b5ade539b50c97a4e9b46b41355d7fc2: 21300000
    - 8b03273a2fa73be4fa9a4457dbad0faf: 21300000
    - 04859e138ff8bbc46a16236d60ba4fae: 21300000
    - b9647b42339bc0a458a6ce1f52aae58b: 21300000
    - 839721d4c54c29749b568413f1bc2955: 21300000
    - 3bf125c86ca1de9419609d0b58dd5c9f: 21300000
    - e182ad3266d4dfd419279db7dda5e12a: 21300000
    - 8365ada2ae0f5eb42a7cf9e626d2ec59: 21300000
    - 3aa6d78583bb7064890541e41ed3a415: 21300000
    - 55f495760145f91489a5f7b86c23e94b: 21300000
    - 5cec56092790ddc4183547eb936cbdbc: 21300000
    - ff375d33ff8ce6e41ab37d755a0c8746: 21300000
  m_MasterAtlas: {fileID: 4343727234628468602, guid: 873929cac4d99d14fb0f1cd278cdc0e6,
    type: 2}
  m_PackedSprites:
  - {fileID: 21300000, guid: 6604c5c3a342f8845a00ef1b99f06e2c, type: 3}
  - {fileID: 21300000, guid: d46a239d48d63a347bc8d700b8d977ae, type: 3}
  - {fileID: 21300000, guid: eab200b4a064ccf448c8fec66c6b1cd0, type: 3}
  - {fileID: 21300000, guid: e5ddb47c3e161fe4cb02059f220a71f8, type: 3}
  - {fileID: 21300000, guid: afdd88475603ac44898f50a50c0daf5e, type: 3}
  - {fileID: 21300000, guid: 21fcd09f376c5e140863d908d5f27630, type: 3}
  - {fileID: 21300000, guid: a32852f271f2a6d4aa4ee2ca5d70e660, type: 3}
  - {fileID: 21300000, guid: b79d931af3144664fa70596c186884b7, type: 3}
  - {fileID: 21300000, guid: 92363d15f8361094084503c0c874347e, type: 3}
  - {fileID: 21300000, guid: 05ea8fcf3204bcf4ebfcf7590d1e2551, type: 3}
  - {fileID: 21300000, guid: 6ae37693a3223bd45b8e40a8819a13a1, type: 3}
  - {fileID: 21300000, guid: 751912536d1b4b9428746e726ecc988f, type: 3}
  - {fileID: 21300000, guid: 999f31a6df9a088489605e0b1fcefe3c, type: 3}
  - {fileID: 21300000, guid: 2f4500ae2c0ffae4ba369162da959e46, type: 3}
  - {fileID: 21300000, guid: b5ade539b50c97a4e9b46b41355d7fc2, type: 3}
  - {fileID: 21300000, guid: 8b03273a2fa73be4fa9a4457dbad0faf, type: 3}
  - {fileID: 21300000, guid: 04859e138ff8bbc46a16236d60ba4fae, type: 3}
  - {fileID: 21300000, guid: b9647b42339bc0a458a6ce1f52aae58b, type: 3}
  - {fileID: 21300000, guid: 839721d4c54c29749b568413f1bc2955, type: 3}
  - {fileID: 21300000, guid: 3bf125c86ca1de9419609d0b58dd5c9f, type: 3}
  - {fileID: 21300000, guid: e182ad3266d4dfd419279db7dda5e12a, type: 3}
  - {fileID: 21300000, guid: 8365ada2ae0f5eb42a7cf9e626d2ec59, type: 3}
  - {fileID: 21300000, guid: 3aa6d78583bb7064890541e41ed3a415, type: 3}
  - {fileID: 21300000, guid: 55f495760145f91489a5f7b86c23e94b, type: 3}
  - {fileID: 21300000, guid: 5cec56092790ddc4183547eb936cbdbc, type: 3}
  - {fileID: 21300000, guid: ff375d33ff8ce6e41ab37d755a0c8746, type: 3}
  m_PackedSpriteNamesToIndex:
  - p_1_1000icon
  - p_1_567icon
  - p_1_1039icon
  - p_1_1001icon
  - p_1_566icon
  - p_1_572icon
  - p_1_1108icon
  - p_1_1107icon
  - p_1_575icon
  - p_1_574icon
  - p_1_1006icon
  - p_1_568icon
  - p_1_1003icon
  - p_1_1114icon
  - p_1_582icon
  - p_1_1115icon
  - p_1_584icon
  - p_1_562icon
  - p_1_1030icon
  - p_1_1111icon
  - p_1_1112icon
  - p_1_576icon
  - p_1_1042icon
  - p_1_564icon
  - p_1_1043icon
  - p_1_1031icon
  m_Tag: Cards_P_1
  m_IsVariant: 1
