%YAML 1.1
%TAG !u! tag:unity3d.com,2011:
--- !u!687078895 &4343727234628468602
SpriteAtlas:
  m_ObjectHideFlags: 0
  m_PrefabParentObject: {fileID: 0}
  m_PrefabInternal: {fileID: 0}
  m_Name: UI_Low
  m_EditorData:
    textureSettings:
      anisoLevel: 1
      compressionQuality: 50
      maxTextureSize: 2048
      textureCompression: 1
      colorSpace: 1
      filterMode: 1
      generateMipMaps: 0
      readable: 0
      crunchedCompression: 0
    platformSettings: []
    packingParameters:
      paddingPower: 2
      blockOffset: 1
      allowAlphaSplitting: 0
      enableRotation: 1
      enableTightPacking: 1
    packedHash:
      serializedVersion: 2
      Hash: 188277f128d9f281748e0b1db067980b
    variantMultiplier: 0.25
    bindAsDefault: 0
    finalFormat: 12
    hashString: 188277f128d9f281748e0b1db067980b
    totalSpriteSurfaceArea: 0
    packables: []
    packedSpriteRenderDataKeys:
    - 1cb83286c85b29846b52886fd35058bb: 21300000
    - d539a3970033588469c4033826155f6e: 21300000
    - 09a072733bdf2d6408c8f0ab3dc7ba38: 21300000
    - 12336d84d416d78409520f4edac548a8: 21300000
    - b178402c14345dd44b82e44b2460b9a7: 21300000
  m_MasterAtlas: {fileID: 4343727234628468602, guid: 1b94c53d3335a5c43b4a3f3b3d523795,
    type: 2}
  m_PackedSprites:
  - {fileID: 21300000, guid: 1cb83286c85b29846b52886fd35058bb, type: 3}
  - {fileID: 21300000, guid: d539a3970033588469c4033826155f6e, type: 3}
  - {fileID: 21300000, guid: 09a072733bdf2d6408c8f0ab3dc7ba38, type: 3}
  - {fileID: 21300000, guid: 12336d84d416d78409520f4edac548a8, type: 3}
  - {fileID: 21300000, guid: b178402c14345dd44b82e44b2460b9a7, type: 3}
  m_PackedSpriteNamesToIndex:
  - logo-en.37
  - ad-forums-bg.37
  - download
  - masters-en.37
  - logo-g.37
  m_Tag: UI
  m_IsVariant: 1
