%YAML 1.1
%TAG !u! tag:unity3d.com,2011:
--- !u!114 &11400000
MonoBehaviour:
  m_ObjectHideFlags: 0
  m_PrefabParentObject: {fileID: 0}
  m_PrefabInternal: {fileID: 0}
  m_GameObject: {fileID: 0}
  m_Enabled: 1
  m_EditorHideFlags: 0
  m_Script: {fileID: 11500000, guid: cd0291f5a45385c4a85ca2f22cb42aa3, type: 3}
  m_Name: SpriteAtlasMap
  m_EditorClassIdentifier: 
  Infos:
  - Tag: Cards
    SpriteNames:
    - 0icon
    - 1000icon
    - 1001icon
    - 1003icon
    - 1006icon
    - 1030icon
    - 1031icon
    - 1039icon
    - 1042icon
    - 1043icon
    - 10icon
    - 1107icon
    - 1108icon
    - 1111icon
    - 1112icon
    - 1114icon
    - 1115icon
    - 1116icon
    - 1117icon
    - 1118icon
    - 11icon
    - 12icon
    - 1icon
    - 2icon
    - 3000icon
    - 3006icon
    - 3032icon
    - 3034icon
    - 3037icon
    - 3040icon
    - 3042icon
    - 3043icon
    - 3100icon
    - 3101icon
    - 3103icon
    - 3104icon
    - 3106icon
    - 3108icon
    - 3109icon
    - 3110icon
    - 3113icon
    - 3115icon
    - 3116icon
    - 3icon
    - 40000icon
    - 4002icon
    - 4003icon
    - 4004icon
    - 4033icon
    - 4035icon
    - 4036icon
    - 4037icon
    - 4038icon
    - 4039icon
    - 4040icon
    - 4041icon
    - 4042icon
    - 4045icon
    - 4047icon
    - 4051icon
    - 4100icon
    - 4101icon
    - 4102icon
    - 4110icon
    - 4113icon
    - 4114icon
    - 4icon
    - 5000icon
    - 50016icon
    - 50017icon
    - 50018icon
    - 50019icon
    - 50020icon
    - 50021icon
    - 50022icon
    - 50023icon
    - 50028icon
    - 50029icon
    - 5002icon
    - 50030icon
    - 50031icon
    - 50032icon
    - 50033icon
    - 50034icon
    - 50035icon
    - 50036icon
    - 50037icon
    - 50038icon
    - 50039icon
    - 5003icon
    - 50040icon
    - 50042icon
    - 50043icon
    - 50051icon
    - 50052icon
    - 50053icon
    - 50054icon
    - 50055icon
    - 50056icon
    - 50057icon
    - 50058icon
    - 50059icon
    - 5005icon
    - 50060icon
    - 50061icon
    - 50062icon
    - 50063icon
    - 50064icon
    - 50065icon
    - 50066icon
    - 50067icon
    - 50068icon
    - 50069icon
    - 50070icon
    - 50071icon
    - 50074icon
    - 50075icon
    - 50076icon
    - 50077icon
    - 50078icon
    - 50079icon
    - 50080icon
    - 50081icon
    - 50082icon
    - 50084icon
    - 50085icon
    - 50086icon
    - 50087icon
    - 50088icon
    - 50089icon
    - 50090icon
    - 50091icon
    - 50093icon
    - 50097icon
    - 50098icon
    - 50101icon
    - 50102icon
    - 50105icon
    - 50106icon
    - 50107icon
    - 50108icon
    - 50109icon
    - 50110icon
    - 50111icon
    - 50112icon
    - 50113icon
    - 50114icon
    - 50115icon
    - 50116icon
    - 50117icon
    - 50118icon
    - 50119icon
    - 50120icon
    - 50121icon
    - 50122icon
    - 50123icon
    - 50124icon
    - 50127icon
    - 50128icon
    - 50129icon
    - 50130icon
    - 50131icon
    - 50132icon
    - 50134icon
    - 50135icon
    - 50136icon
    - 50137icon
    - 50138icon
    - 50139icon
    - 50140icon
    - 50141icon
    - 50142icon
    - 50143icon
    - 50144icon
    - 50150icon
    - 50151icon
    - 50155icon
    - 50156icon
    - 50157icon
    - 50158icon
    - 50159icon
    - 50160icon
    - 50161icon
    - 50162icon
    - 50163icon
    - 50164icon
    - 50165icon
    - 50166icon
    - 50167icon
    - 50168icon
    - 50169icon
    - 50170icon
    - 50171icon
    - 50172icon
    - 50173icon
    - 50174icon
    - 50175icon
    - 50177icon
    - 50178icon
    - 50179icon
    - 50180icon
    - 50181icon
    - 50182icon
    - 50183icon
    - 50184icon
    - 50185icon
    - 50186icon
    - 50187icon
    - 50188icon
    - 50189icon
    - 50190icon
    - 50191icon
    - 50192icon
    - 50195icon
    - 50196icon
    - 50197icon
    - 50198icon
    - 50199icon
    - 501icon
    - 50202icon
    - 50203icon
    - 50205icon
    - 50206icon
    - 50207icon
    - 50208icon
    - 50209icon
    - 50210icon
    - 50211icon
    - 50212icon
    - 50213icon
    - 50214icon
    - 50215icon
    - 50216icon
    - 50217icon
    - 50218icon
    - 50219icon
    - 50220icon
    - 50221icon
    - 50222icon
    - 50223icon
    - 50224icon
    - 50225icon
    - 50226icon
    - 50227icon
    - 50228icon
    - 50229icon
    - 50230icon
    - 50231icon
    - 50232icon
    - 50233icon
    - 50234icon
    - 50235icon
    - 50236icon
    - 50237icon
    - 50238icon
    - 50239icon
    - 50240icon
    - 50241icon
    - 50242icon
    - 50243icon
    - 50244icon
    - 50245icon
    - 50246icon
    - 50247icon
    - 50248icon
    - 50249icon
    - 50250icon
    - 50251icon
    - 50252icon
    - 50253icon
    - 50254icon
    - 50255icon
    - 50256icon
    - 50257icon
    - 50258icon
    - 50259icon
    - 50260icon
    - 50261icon
    - 50262icon
    - 50263icon
    - 50264icon
    - 50265icon
    - 50266icon
    - 50267icon
    - 50268icon
    - 50269icon
    - 50270icon
    - 50271icon
    - 50272icon
    - 50273icon
    - 50274icon
    - 5031icon
    - 5032icon
    - 5033icon
    - 5036icon
    - 5037icon
    - 5038icon
    - 5041icon
    - 5043icon
    - 505icon
    - 506icon
    - 507icon
    - 508icon
    - 509icon
    - 5104icon
    - 5105icon
    - 5106icon
    - 5107icon
    - 5114icon
    - 5115icon
    - 5116icon
    - 5117icon
    - 515icon
    - 517icon
    - 550icon
    - 551icon
    - 552icon
    - 553icon
    - 555icon
    - 559icon
    - 562icon
    - 564icon
    - 566icon
    - 567icon
    - 568icon
    - 572icon
    - 574icon
    - 575icon
    - 576icon
    - 582icon
    - 584icon
    - 5icon
    - 6icon
    - 8icon
    - 9icon
  - Tag: Cards_P_0
    SpriteNames:
    - p_0_0icon
    - p_0_10icon
    - p_0_11icon
    - p_0_12icon
    - p_0_1icon
    - p_0_2icon
    - p_0_3icon
    - p_0_4icon
    - p_0_501icon
    - p_0_505icon
    - p_0_506icon
    - p_0_507icon
    - p_0_508icon
    - p_0_509icon
    - p_0_515icon
    - p_0_517icon
    - p_0_550icon
    - p_0_551icon
    - p_0_552icon
    - p_0_553icon
    - p_0_555icon
    - p_0_559icon
    - p_0_5icon
    - p_0_6icon
    - p_0_8icon
    - p_0_9icon
  - Tag: Cards_P_1
    SpriteNames:
    - p_1_1000icon
    - p_1_1001icon
    - p_1_1003icon
    - p_1_1006icon
    - p_1_1030icon
    - p_1_1031icon
    - p_1_1039icon
    - p_1_1042icon
    - p_1_1043icon
    - p_1_1107icon
    - p_1_1108icon
    - p_1_1111icon
    - p_1_1112icon
    - p_1_1114icon
    - p_1_1115icon
    - p_1_562icon
    - p_1_564icon
    - p_1_566icon
    - p_1_567icon
    - p_1_568icon
    - p_1_572icon
    - p_1_574icon
    - p_1_575icon
    - p_1_576icon
    - p_1_582icon
    - p_1_584icon
  - Tag: Cards_P_2
    SpriteNames:
    - p_2_1116icon
    - p_2_1117icon
    - p_2_1118icon
    - p_2_3000icon
    - p_2_3006icon
    - p_2_3032icon
    - p_2_3034icon
    - p_2_3037icon
    - p_2_3040icon
    - p_2_3042icon
    - p_2_3043icon
    - p_2_3100icon
    - p_2_3101icon
    - p_2_3103icon
    - p_2_3104icon
    - p_2_3106icon
    - p_2_3108icon
    - p_2_3109icon
    - p_2_3110icon
    - p_2_3113icon
    - p_2_3115icon
    - p_2_3116icon
    - p_2_4002icon
    - p_2_4003icon
    - p_2_4004icon
    - p_2_4033icon
  - Tag: Cards_P_3
    SpriteNames:
    - p_3_4035icon
    - p_3_4036icon
    - p_3_4037icon
    - p_3_4038icon
    - p_3_4039icon
    - p_3_4040icon
    - p_3_4041icon
    - p_3_4042icon
    - p_3_4045icon
    - p_3_4047icon
    - p_3_4051icon
    - p_3_4100icon
    - p_3_4101icon
    - p_3_4102icon
    - p_3_4110icon
    - p_3_4113icon
    - p_3_4114icon
    - p_3_5000icon
    - p_3_5002icon
    - p_3_5003icon
    - p_3_5005icon
    - p_3_5031icon
    - p_3_5032icon
    - p_3_5033icon
    - p_3_5036icon
    - p_3_5037icon
  - Tag: CardsBackground
    SpriteNames:
    - Gwent_Monsters_1920x1080_EN_Background
  - Tag: MainBackground
    SpriteNames:
    - OB_WP_1920x1080_EN_Background
  - Tag: Screenshots
    SpriteNames:
    - BattleScreen_1.37
    - BattleScreen_2.37
    - Biting_Frost2.37
    - Ciri.37
    - DeckBuilder_1.37
    - DeckBuilder_2.37
    - Geralt.37
    - MatchStart.37
    - RedrawCards.37
  - Tag: UI
    SpriteNames:
    - ad-forums-bg.37
    - download
    - logo-en.37
    - logo-g.37
    - masters-en.37
