%YAML 1.1
%TAG !u! tag:unity3d.com,2011:
--- !u!687078895 &4343727234628468602
SpriteAtlas:
  m_ObjectHideFlags: 0
  m_PrefabParentObject: {fileID: 0}
  m_PrefabInternal: {fileID: 0}
  m_Name: Cards
  m_EditorData:
    textureSettings:
      anisoLevel: 1
      compressionQuality: 50
      maxTextureSize: 4096
      textureCompression: 1
      colorSpace: 1
      filterMode: 1
      generateMipMaps: 0
      readable: 0
      crunchedCompression: 0
    platformSettings:
    - m_BuildTarget: WebGL
      m_MaxTextureSize: 2048
      m_TextureFormat: 12
      m_TextureCompression: 1
      m_CompressionQuality: 50
      m_CrunchedCompression: 0
      m_AllowsAlphaSplitting: 0
      m_Overridden: 0
    packingParameters:
      paddingPower: 2
      blockOffset: 1
      allowAlphaSplitting: 0
      enableRotation: 0
      enableTightPacking: 0
    packedHash:
      serializedVersion: 2
      Hash: a19cab4a4a892a1f2a8437bdcdaf929d
    variantMultiplier: 1
    bindAsDefault: 0
    finalFormat: 12
    hashString: a19cab4a4a892a1f2a8437bdcdaf929d
    totalSpriteSurfaceArea: 21299635
    packables:
    - {fileID: 102900000, guid: 72b2cae7834cd774892ad70ee55ac92b, type: 3}
    packedSpriteRenderDataKeys:
    - a1678b18ce7763945975c1c08b7985a5: 21300000
    - 879247ae6447e0b478a851d0cbcc07a8: 21300000
    - 8425255b8ce84bb4b8b2426f2d6c785d: 21300000
    - 9c2a02b1d685445468e34895dc16ed80: 21300000
    - ff6cb92d2819045429ef19849205cdb0: 21300000
    - b8230e582c6d40e4491e67e3ab03ddca: 21300000
    - 35542d43f86a23b469c41b9fa2f2f7fb: 21300000
    - 1276f134f9bf784458818aeb406aaebb: 21300000
    - 7d5ed69c4c2128a49b83c666c364bded: 21300000
    - 676acc78e989b234e811466c7746357b: 21300000
    - d2480a0dc26a82a40a39ef90a36542a3: 21300000
    - 2a3d0dfd3ed1a3c4682dab198a33a31e: 21300000
    - 989bb983d84c68e4aa9dc80459bc4fb2: 21300000
    - 014f4f5c8a681de4bb72f1390a36607c: 21300000
    - d8ba8d8ced0109a41bb852f8c7e2b366: 21300000
    - b60319641c75f5348bf9adc6e3d1e2ca: 21300000
    - 0bf5b1197a0edf1439a39dac6165bf33: 21300000
    - 9a303de96820396459513d9b469cbe23: 21300000
    - a22a6810efcafec4eafd3f3d4d585af2: 21300000
    - 5e9414e5613e5f14e9c71182d6ed50e1: 21300000
    - 40dd28d6ed1b7dc42b5fd31973ce8f5e: 21300000
    - 01649b8c69ba9d54d8dc192991ae9408: 21300000
    - ab368809fec2dbf488a4f5d2e80d1919: 21300000
    - 0f997d092e31f144089d3e6f1a8373d5: 21300000
    - e174453f0295370469132fd2757b8c42: 21300000
    - 5a6bf799f129f354bb7b46dffdde88cd: 21300000
    - d14adfefc5d92be4ba05c21876197cc8: 21300000
    - b65eae13968b787489db38e15e14a173: 21300000
    - 72ce48d89ddddf541a86d43d02a4a219: 21300000
    - d0a71fab456ac63498202125132e76bf: 21300000
    - edd6f0919f0fe484e98b370c972ca40f: 21300000
    - 38b00ee140af850468d5921cc7a078f6: 21300000
    - 8c1097e867d259745bb13826a7cd0cb3: 21300000
    - 5c2d8e17fc0cfcb4abbc44ed77d1335b: 21300000
    - 7324278f172cc374291a647131eae1bf: 21300000
    - e9e8f7372e9da694fa59350ac4f85646: 21300000
    - 7cde55d1b79586d468db34458fc90818: 21300000
    - 937c0e9aba36bc34ab097bea5f4dd604: 21300000
    - cb4b37762b750bd49a407dfd1c2abc90: 21300000
    - 0c952d70fd48cce439baf3d530724560: 21300000
    - 50712f71d91ea804badfb509a87aa848: 21300000
    - 651fbf24ec80d844e93ae64edb9c9417: 21300000
    - 73a9bb30275ca214c88944d24024bef7: 21300000
    - 8df3c50a05b612e4ba8a5bae31a04574: 21300000
    - ba4d38b2f11b109499ced7814bf1ffe9: 21300000
    - 96d580cca8c54b643ac0956d356fec1a: 21300000
    - 45fc89b13535786458c96ad9fbe8aa87: 21300000
    - e3cab965aab3f7f4996d6d0c393b1233: 21300000
    - ab405e3c5e6e7a648b2558c016302af5: 21300000
    - bf996f995c75bb74faad7c40d3750e68: 21300000
    - 2595e6be525559c4e9ac8e58ac9fdec7: 21300000
    - 7fe73cf08c4833343925da7eb4e85a73: 21300000
    - 85713b183ae48b1478afcb514eaa0d4b: 21300000
    - c7163a0df0cf808499c631c860d087ea: 21300000
    - 26cb5db51265b2a4e9d5b04e94eeedbb: 21300000
    - dc428516e9aa7d14996713917c94a4a9: 21300000
    - 209f401381b5e7340a381062587a6269: 21300000
    - 5c09ae5ffed009042b7672c93820b7fa: 21300000
    - 2ca301d42aa866847820ee656aa16eb0: 21300000
    - de0cb84d96ff3fa48a7f3b256e04c345: 21300000
    - f562cca12f666fe4282646032b86bc22: 21300000
    - dc49db061e59197488e01b8d2017712c: 21300000
    - 7aca89c232510f14c9498e67517f7085: 21300000
    - c23acfab3f47e1d42853c041b51c2c2c: 21300000
    - 3b7f46fd034b8804fbcccf0d5667156f: 21300000
    - 5ce9c238354a508478f90b5249d4a645: 21300000
    - 276246160a69e784b888289af355122c: 21300000
    - 9b632de6215111e42b3dda30165dc302: 21300000
    - 801ac94642d0b744b9f2571579a510c7: 21300000
    - 1553e68144a9c884cbeb9811df64684c: 21300000
    - ce6a05c5734edff49b02cf449e01faa3: 21300000
    - 87fa8f092c83034418b40b4c9f06969f: 21300000
    - cd552cf4d274a40488056009aa430256: 21300000
    - 721c2c07cd3f89549ae52eb41d4dd93b: 21300000
    - 2c77c1fb837ce4946a4a969c80b20764: 21300000
    - fc1b9e2a6561055418e1cde6a5648d59: 21300000
    - 54a4bf53ac4204c45b12ae385e7fb29b: 21300000
    - 2c5b2ff88a62c9e4f9dd543d28db4c65: 21300000
    - 3a280bc9b45d8b343b339e05a02046f7: 21300000
    - 79438a48c6a7b0a438a9a4cb62ccdcda: 21300000
    - 3697bb34f9d3b304c839ffedb776fd92: 21300000
    - cbf7f63593c2eb8489b13367d4879e34: 21300000
    - 10a301ea66d82d249894055264fd12b1: 21300000
    - 08c686f1fd0fbb14b86dbb0594926689: 21300000
    - de30b33958eb6d949a5c8ff52722c4bf: 21300000
    - c4e8195205e801a46bdce7bb52359acc: 21300000
    - c5f561ee2e7d1f043bb877a2017eda1b: 21300000
    - a4623d2363080234e9ebc26c4e8b18d6: 21300000
    - 8ac2cd90ce4deb4459ea1a4baeb908ed: 21300000
    - 990abd833a1c2534fa3835d60e08c401: 21300000
    - 8222f388ce5c0964ba442fa68ff77137: 21300000
    - fc2932f28c55e2a4d8ed9f6c8a7ebb82: 21300000
    - bc47407cdcdc9964cad2bc5308c66712: 21300000
    - 5029f14873c022a48ad985e98f06114b: 21300000
    - a49ca21d48ad2724e908f883b6f67175: 21300000
    - 2e88e9134d4ef504e9d539c02db7f8b8: 21300000
    - 4374bc2a884df9c47aed73c09c260d26: 21300000
    - 81e9570de50befb47bbfc4234a1446fd: 21300000
    - 5c0091e672b3a694f8b20e0aa403ebe1: 21300000
    - 7cf98e8e17014b54faf10420e870fa9d: 21300000
    - e504350db332fa14d827acba6cd13405: 21300000
    - 899fda941b4694a4aa0c5183cefbce0d: 21300000
    - 7a6e907ea6c19bc4b930f9d2ab98d010: 21300000
    - 1662db20487db3b48b475f253f8e4cfa: 21300000
    - 550a8e6956f71e14296269a4e735260e: 21300000
    - 09765b70d2ada854db0ca2e9f764a84a: 21300000
    - f67055e99f62a0e47b9b8703cd36d453: 21300000
    - a08a3ac43a9a41b4ea64b730738f2b60: 21300000
    - fa9e13993c8c7974aab4651602a077ba: 21300000
    - b83675cedfb6ea14bade751062cdf1f8: 21300000
    - 415617dad934ab54dadf3d954913b7f0: 21300000
    - a32d8392a4f50244585a08c78bd01f0d: 21300000
    - 46585f8403018904abd5a6f894cc46c2: 21300000
    - 098502a945252cd43a7a56af5a0131bd: 21300000
    - 34e9faeeffb2b804083f4c4d007c7392: 21300000
    - 742143a73180cee4394f98deefec4c7b: 21300000
    - 32a71b5a9daa10445afd8a899bb71020: 21300000
    - 7782ae028a2056b428dce24ae61ea053: 21300000
    - e111f4e31967e0341b8193c457e649f0: 21300000
    - 8134ac87a9d4d4849911544967fac8b8: 21300000
    - 8d456280ff7d98e4a87308f07d8160a5: 21300000
    - 5e2d757ebe8f5904f87fb4e6ddc68284: 21300000
    - 107fd4c75924da348b16ea1b1837f649: 21300000
    - 652404066683c234b99e6c3c18dce9f2: 21300000
    - b92f2c8b2b21c8e4f900c51c0e4f1e2f: 21300000
    - a238c35a6d9282749b1d361491054061: 21300000
    - e9e638db3c2a40d4cb624bcbdf50f51e: 21300000
    - 672c7cf58a922414c87f6793b4f48f6d: 21300000
    - 8f5cd3fb25ac84e49a918e3e2910dde9: 21300000
    - 9d629695e338aac4187384420bdacf74: 21300000
    - 4b655d144e3d8fb4c8a64cba17a6819c: 21300000
    - 6686f6b63a1fd6840a96b276444af381: 21300000
    - 3677c6b1fe2e5ed43a0798dd00143fee: 21300000
    - 526d863f67bfb3a4bbe356b6a1db1327: 21300000
    - df3655fa2413ffe4c95650f7f1e04527: 21300000
    - 3f5c9c4239845e1469dc097b40acad76: 21300000
    - 9e1dbe152bde75b4b9295058b4d9f14e: 21300000
    - a53d09fdca791a14bb3ad8e2629db8a6: 21300000
    - 395bcb8f47fc44f428690419de8f0798: 21300000
    - de1e3a801f0f3564fab34969227e7dc3: 21300000
    - 8817fd204a52b6745984ac217f38a0a2: 21300000
    - d34ae660383cf37499752c9c33af6ae5: 21300000
    - 9339d7f2733844349ad9b07757949f01: 21300000
    - f1331bb968d2eb94385ef3b9f7058bbe: 21300000
    - 24252beb547e04646bc19155a1a84bd4: 21300000
    - 9c796ae0349170146bfa91088c2ee879: 21300000
    - ce1b16390708c5240bae3487a806b521: 21300000
    - 986ad5dd9cf347240a369263dadfcdc5: 21300000
    - 36d1aa00b5186374e89a5eb801b92e72: 21300000
    - 1cb665625ec475147bfb8ce52f656e89: 21300000
    - 197812e8fe0eaec48954fbb872e688d6: 21300000
    - 9dc72774b8136d44fb0ef84701953038: 21300000
    - a61200f7642d74e4d9c0e97716a94d0b: 21300000
    - 7d7d9772ff19d2740a88cb8b3e99ab61: 21300000
    - 0caf954dc3d35f548b92ef94f28e762b: 21300000
    - eab00449195eaf342835868277898ba7: 21300000
    - 24bf5bad6ac5d0c4bb109d018c718493: 21300000
    - e1bf3de33bbd71f408bd489cb754c138: 21300000
    - 53d23add3e574884e818d924fab23721: 21300000
    - 27565391365f90d48b2b32f46d46628f: 21300000
    - a62728c006c75e548a2123451e55d3a5: 21300000
    - 75b51fdac9ee79649a013edfd879e3f7: 21300000
    - 33edaf68d3f2c174ba0a6e9a3b19dffb: 21300000
    - 6fb24431b7a6d3547aa22dc45d83b23c: 21300000
    - e8cb4a327d9230c4fb8b29301481f8c0: 21300000
    - f5d86e03706083b42a420731728c7cfd: 21300000
    - c4d6e96c52feb724cab0fb65b97735f7: 21300000
    - d781ed16f5bb62d48a3719e6ddb4ca18: 21300000
    - d1689f5bd1a5d28409a90a04b31e714a: 21300000
    - 8691ace9e91b14c49981eefa132aab9d: 21300000
    - f5caa8e4a79cb7c4cac612ab5745e446: 21300000
    - 6039a5dd099836f4097f7a064fc09e7d: 21300000
    - cc3d70bf2594e9a4ab18faa1a6960e4c: 21300000
    - 925658bda8cf23c4c88a61bfc5681c21: 21300000
    - e323068edf9a3014fb1af0ac83bde946: 21300000
    - c9f936afb17a11547834e52729c33162: 21300000
    - 4effd3065c103eb4884b51108b5b3bcc: 21300000
    - 692df466eb07c9f4f97401e46599d5d4: 21300000
    - 8a38e755ac014a140ac337ef041eec6b: 21300000
    - a07d617cbf9349147812576f3fbc07cb: 21300000
    - bea59069d2f46a54d93bfec635022708: 21300000
    - 2a065d4b08b9d9f4b9d42d3ca129cd93: 21300000
    - c9c61952c1b0da4448b88da81084a28b: 21300000
    - 2fe41b5bb533b8b4da3aebf8ca107957: 21300000
    - 9aa61b42c350e4b4baa4cc6200bb8ca0: 21300000
    - aa61eaea8e2042f4faf1cf1df1919171: 21300000
    - 0b5c35b034d630f4f97b6bbd4a8e62e8: 21300000
    - be11b0f89a129154cbe77c7afb4bcc62: 21300000
    - fbc11476dd528d749b7847fbc99bb02e: 21300000
    - af94a5541e2b91646a99e4be5351f264: 21300000
    - 6b1a7d179eaee924fa0b3cc84fe6bd2a: 21300000
    - 25696f2da39fc5046a262cf11fd8ecd4: 21300000
    - 0fb26fe6a4314174991dc31dec43340c: 21300000
    - a15241ed39b8c7542a462bfef469bc42: 21300000
    - 7e50a4571bbdf7d42a968454e86c21db: 21300000
    - 5ec86512131aa224cafe8deabc68a87f: 21300000
    - 2a33532d8ef44344c8951e25cfc1ecbc: 21300000
    - 20d2c672abbf717419865b8fe798569c: 21300000
    - b84cff929e480654b821971bce87258f: 21300000
    - 4e228ef8f41d07e4b9e0df0694543ade: 21300000
    - bc3952cf521031b40a16dd51215aa77f: 21300000
    - 0c38267fc7c6b4b47a054c8fd38016e8: 21300000
    - 46c9b7f6e90841044a582617b0243392: 21300000
    - e10767e9b29a53b43959ef157948bbb5: 21300000
    - 9832f3cd62020c14c8912d6a89a7f4f4: 21300000
    - 0fd0b2b975d8fd54392001e3e5ab9d6d: 21300000
    - 24ad0ba223d628f4f9f28ca56d44433f: 21300000
    - 848d0276abb6d1d4da959a46f4424467: 21300000
    - e75a31b9a8e115e479e1f80c3c733308: 21300000
    - 005f4b4616ef3b542a6a5d406e442c63: 21300000
    - d3b6be15b913f2e44bddc5e8482d1289: 21300000
    - 0572cd3788ffb9746a150b7a6745a1f6: 21300000
    - 893fc5f9586d55e40861b1dd41d043a5: 21300000
    - 9e65a7098b4119d4eb3c563eae1026f1: 21300000
    - f6cc4045a3b484a478d8f70399f5dcd0: 21300000
    - 0e09f401ce59ceb43aa1b9030aab275b: 21300000
    - 7e1c51833fb1b994696ab2b3a370fb8d: 21300000
    - 4f94edb44f62f4d48aa44719dd089714: 21300000
    - 8930f95574f2eea45844615a35252672: 21300000
    - 046261ef4bca27d4d90e1dccc3e931db: 21300000
    - 821dac2a9aa000b46abf05884d037352: 21300000
    - 137912bdeac5d4a4786717979d12e5ef: 21300000
    - b0ad2c24a554243438d41b546b7eeaab: 21300000
    - 16b000d8812d2a64a8955f02aab94f16: 21300000
    - 3e85bb649aeca61428d06476acd9d5c6: 21300000
    - 97a1f454c6d70c64a98cad9602e4e21c: 21300000
    - ba3cb6cb0a177c341a638033fece1e8d: 21300000
    - 25f63b984127339448f7134627adea82: 21300000
    - ad42bce6b4170b4429c890db201594ee: 21300000
    - 7073ac41935f75a42bec5721ef152d06: 21300000
    - 8b13f41bc821d994995a9d2ba9ea9404: 21300000
    - a3432211be92a37468d5951303cbafa7: 21300000
    - 94c695640069a90419b4ae17288517e5: 21300000
    - a9c4ed3f07471704ea829cb1dbed759e: 21300000
    - 190078ca02dc3fc48b83a4ef71af6509: 21300000
    - 9e9a1a69c95d6424aacb51b0a1b1e1ca: 21300000
    - 871b485b94a704a4cb6f6ce05e001603: 21300000
    - c348d420e2cbe064b99fe72cc484133d: 21300000
    - b3a90ea0070b3bd41b7cf5ac7fad744a: 21300000
    - 7acd15e410f186d4491b0bb32f6b6b53: 21300000
    - 82bb764a50f44ae4ba7c2f8e33bf27dc: 21300000
    - e12499020af66ec4dbd5f3878e3f84b0: 21300000
    - 23c4a5e4f14400548874dac5b5bf1fe8: 21300000
    - ab315bc61a52d1c4cbf2ce55c1e5cce7: 21300000
    - f806cf0836942434ab4e5e0e56fb5c75: 21300000
    - 29a727a3e5fadcd468bb3ad35706e426: 21300000
    - 12426d58f5ad68a43a52b3752a070935: 21300000
    - 74f725e8d5f66914188b557cb35955c4: 21300000
    - d7e838451b4a8954bb5d26db215c110c: 21300000
    - e807aaa6ee569224c98b78d3b6a07257: 21300000
    - 0c12d4c94fad0874bb572135318ee559: 21300000
    - 242de9e65abd23d4f9050576e87ade68: 21300000
    - f714ef1d689ae13478cb6825aa328a12: 21300000
    - 960d2ae4f2aa1e24fa55a1e20d6a251e: 21300000
    - 0973529416a70bc47b818d19c4e16d27: 21300000
    - 99feaef0f27c52b4082a84b25e75ecc2: 21300000
    - 30dc2bcc24b64b84281325972369dfd2: 21300000
    - 10effdab4f02ad14a9869f10f8b9d60a: 21300000
    - a6df3a086a390db45af60c4a7f37cfc0: 21300000
    - 42a40d45c3c33ee468d29eba5ee69aea: 21300000
    - 54171ee7a03146c4cb49acc6fff014be: 21300000
    - 5d58daa60311fce489d4f7ac51af8fe3: 21300000
    - a03a218d115eafe4088e9d6026dd400d: 21300000
    - e60fa61752ede1f4e940c487c2813644: 21300000
    - 4e3535830d4a1c74fb1165100c454b12: 21300000
    - 180b7697ceba5da4998eef1a230207e7: 21300000
    - 4609f67b82e265841b5ba8618f138ed6: 21300000
    - 603ceba3f46a36541b5fb83d33fa5cc1: 21300000
    - e7aa8cd14cc5ba24a957fe0d5f1ca4af: 21300000
    - fb8d0160f67fc744eaf30851a37740ff: 21300000
    - 097c3f6c6e2325f439da26660e714d9b: 21300000
    - 2c600a90c1ddf384d986401d9942a705: 21300000
    - d0f94052b563f364c8fefa65a6409e81: 21300000
    - d942333ee75bde148a066d371278e255: 21300000
    - 4063287975194b04ca0ba8278ec1c48c: 21300000
    - c4813dd57fdd4b640bdb6fc5db517312: 21300000
    - 1c46fbf6d7f14ec448201987c7e6f6f4: 21300000
    - 2386b28e1395a524fbf2fe56e150156a: 21300000
    - f6ec9b140470cf743908acd79cf3075b: 21300000
    - 054dc4240d8eab24080f52305c2f09d3: 21300000
    - a2f6521cd9d99f2458d06a12c49c63d9: 21300000
    - a6b5010848c82c342989ce33fd2034ab: 21300000
    - da1af02c54509d24eac7ef692aa78028: 21300000
    - 68cd0340a6eb72c408c3997698a98930: 21300000
    - 3fea6ba68823c894cbddbf75a15b5fba: 21300000
    - ffa316296a4470b479915438fee6a535: 21300000
    - d51301baf4a0e6f4098a9a6fd910ac9a: 21300000
    - eb9fce21be13b5c44b9dfd7d148c101c: 21300000
    - d35b6e0728fee7d4e91a10b1dfb06267: 21300000
    - 5a4696ed82c7e1f468b7755154fd8d2e: 21300000
    - 9b8a0fdebd4cffb4ebe0c61b9125b573: 21300000
    - bdcc39a875f435d4f82d35c8dcce5817: 21300000
    - 08b7f52b9c8cddd4c9c2a7ad78ce434f: 21300000
    - 2c1729e8c2e70fa418414a0c049eb325: 21300000
    - a19cf70daf094bc4da93ed17bc64bec9: 21300000
    - 5400726e3ea4b654abe4553cd7efa44a: 21300000
    - 1cfc06190b675f8459df436a5d0d0eef: 21300000
    - 877af031460d45f4ea8999b3717d2382: 21300000
    - c656ca1afe7aa4744831fc3bee127301: 21300000
    - c815e2f9b6cd3a247a3c5c62cebc9816: 21300000
    - 38627b52e861dfb46b842b6fba456163: 21300000
    - 6cd79dd8de679214a8cd1f832f800044: 21300000
    - 720b04598f95c8145a0a680fe4bb74d1: 21300000
    - 4522faaa3f9a1e64ab81bf37b84b08e5: 21300000
    - a051b7940d8a38841a96dc869cfbd2de: 21300000
    - 06cb1f8ce43648847b155977e6dd1503: 21300000
    - 2a79a4fb8f1dd4a4c972ab4bcea6ae1a: 21300000
    - 6b7392ad35349ef4eab99544d4d32c8c: 21300000
    - f62e03bf84be97c46ba6c671657571fa: 21300000
    - d808391e6493b2449be1931e17fe665e: 21300000
    - 7d1cdf5d7e0057f4594be608b9068a20: 21300000
    - 1daa8e3ffc6da9f4496ae564fa40baa6: 21300000
    - 3b213eb5a11d1a04c966c05286f0c0ab: 21300000
    - 3a64c1ff20aaaef47bb798903373bbd8: 21300000
    - b68fc7c51fc54f04585a9a1d89ba5b92: 21300000
    - d24833d55b06b584ea969ecb6380684b: 21300000
    - 45e1c582f410988498d406f6ae8f09d4: 21300000
    - 94c2f1217307d1f418feb64811c91176: 21300000
    - d0947d3481fae1a46b28ff1879137bb1: 21300000
    - 6e5c244013ff84e4ca7f6eeebb8c48e9: 21300000
    - f2dc1dd39901d0b4cb2f851353fe7e55: 21300000
    - 84b71aeffe2d89e4ba094c203a424c55: 21300000
    - ba994d31caf2ba748ade218a9e30e6d2: 21300000
    - 831cb1bb3d1a702478e676f2d3bf7b43: 21300000
    - 8a6074a03085bf842819d7984890acd5: 21300000
    - 0048418b7dd793447a4eaef5306f592b: 21300000
    - f2be78612ed9b8943bde29ea7838ca71: 21300000
    - fb5d9555963e864419747cde2c1a1540: 21300000
    - 9aa6c9c0e98729945a0cf8f6dabe8049: 21300000
    - 1a0a7a258aaa47745a2ebd5f05191538: 21300000
    - a567947a154ba204585258d9aea65705: 21300000
    - b76d94fe5c02fd5479c43e8ec30ce25c: 21300000
    - aa257e536b4f3ca4db6f1e9c20a138ef: 21300000
    - e714205743fa83c43b3087fedb934764: 21300000
    - c4292d375895a094ab075d6790e54d75: 21300000
  m_MasterAtlas: {fileID: 0}
  m_PackedSprites:
  - {fileID: 21300000, guid: a1678b18ce7763945975c1c08b7985a5, type: 3}
  - {fileID: 21300000, guid: 879247ae6447e0b478a851d0cbcc07a8, type: 3}
  - {fileID: 21300000, guid: 8425255b8ce84bb4b8b2426f2d6c785d, type: 3}
  - {fileID: 21300000, guid: 9c2a02b1d685445468e34895dc16ed80, type: 3}
  - {fileID: 21300000, guid: ff6cb92d2819045429ef19849205cdb0, type: 3}
  - {fileID: 21300000, guid: b8230e582c6d40e4491e67e3ab03ddca, type: 3}
  - {fileID: 21300000, guid: 35542d43f86a23b469c41b9fa2f2f7fb, type: 3}
  - {fileID: 21300000, guid: 1276f134f9bf784458818aeb406aaebb, type: 3}
  - {fileID: 21300000, guid: 7d5ed69c4c2128a49b83c666c364bded, type: 3}
  - {fileID: 21300000, guid: 676acc78e989b234e811466c7746357b, type: 3}
  - {fileID: 21300000, guid: d2480a0dc26a82a40a39ef90a36542a3, type: 3}
  - {fileID: 21300000, guid: 2a3d0dfd3ed1a3c4682dab198a33a31e, type: 3}
  - {fileID: 21300000, guid: 989bb983d84c68e4aa9dc80459bc4fb2, type: 3}
  - {fileID: 21300000, guid: 014f4f5c8a681de4bb72f1390a36607c, type: 3}
  - {fileID: 21300000, guid: d8ba8d8ced0109a41bb852f8c7e2b366, type: 3}
  - {fileID: 21300000, guid: b60319641c75f5348bf9adc6e3d1e2ca, type: 3}
  - {fileID: 21300000, guid: 0bf5b1197a0edf1439a39dac6165bf33, type: 3}
  - {fileID: 21300000, guid: 9a303de96820396459513d9b469cbe23, type: 3}
  - {fileID: 21300000, guid: a22a6810efcafec4eafd3f3d4d585af2, type: 3}
  - {fileID: 21300000, guid: 5e9414e5613e5f14e9c71182d6ed50e1, type: 3}
  - {fileID: 21300000, guid: 40dd28d6ed1b7dc42b5fd31973ce8f5e, type: 3}
  - {fileID: 21300000, guid: 01649b8c69ba9d54d8dc192991ae9408, type: 3}
  - {fileID: 21300000, guid: ab368809fec2dbf488a4f5d2e80d1919, type: 3}
  - {fileID: 21300000, guid: 0f997d092e31f144089d3e6f1a8373d5, type: 3}
  - {fileID: 21300000, guid: e174453f0295370469132fd2757b8c42, type: 3}
  - {fileID: 21300000, guid: 5a6bf799f129f354bb7b46dffdde88cd, type: 3}
  - {fileID: 21300000, guid: d14adfefc5d92be4ba05c21876197cc8, type: 3}
  - {fileID: 21300000, guid: b65eae13968b787489db38e15e14a173, type: 3}
  - {fileID: 21300000, guid: 72ce48d89ddddf541a86d43d02a4a219, type: 3}
  - {fileID: 21300000, guid: d0a71fab456ac63498202125132e76bf, type: 3}
  - {fileID: 21300000, guid: edd6f0919f0fe484e98b370c972ca40f, type: 3}
  - {fileID: 21300000, guid: 38b00ee140af850468d5921cc7a078f6, type: 3}
  - {fileID: 21300000, guid: 8c1097e867d259745bb13826a7cd0cb3, type: 3}
  - {fileID: 21300000, guid: 5c2d8e17fc0cfcb4abbc44ed77d1335b, type: 3}
  - {fileID: 21300000, guid: 7324278f172cc374291a647131eae1bf, type: 3}
  - {fileID: 21300000, guid: e9e8f7372e9da694fa59350ac4f85646, type: 3}
  - {fileID: 21300000, guid: 7cde55d1b79586d468db34458fc90818, type: 3}
  - {fileID: 21300000, guid: 937c0e9aba36bc34ab097bea5f4dd604, type: 3}
  - {fileID: 21300000, guid: cb4b37762b750bd49a407dfd1c2abc90, type: 3}
  - {fileID: 21300000, guid: 0c952d70fd48cce439baf3d530724560, type: 3}
  - {fileID: 21300000, guid: 50712f71d91ea804badfb509a87aa848, type: 3}
  - {fileID: 21300000, guid: 651fbf24ec80d844e93ae64edb9c9417, type: 3}
  - {fileID: 21300000, guid: 73a9bb30275ca214c88944d24024bef7, type: 3}
  - {fileID: 21300000, guid: 8df3c50a05b612e4ba8a5bae31a04574, type: 3}
  - {fileID: 21300000, guid: ba4d38b2f11b109499ced7814bf1ffe9, type: 3}
  - {fileID: 21300000, guid: 96d580cca8c54b643ac0956d356fec1a, type: 3}
  - {fileID: 21300000, guid: 45fc89b13535786458c96ad9fbe8aa87, type: 3}
  - {fileID: 21300000, guid: e3cab965aab3f7f4996d6d0c393b1233, type: 3}
  - {fileID: 21300000, guid: ab405e3c5e6e7a648b2558c016302af5, type: 3}
  - {fileID: 21300000, guid: bf996f995c75bb74faad7c40d3750e68, type: 3}
  - {fileID: 21300000, guid: 2595e6be525559c4e9ac8e58ac9fdec7, type: 3}
  - {fileID: 21300000, guid: 7fe73cf08c4833343925da7eb4e85a73, type: 3}
  - {fileID: 21300000, guid: 85713b183ae48b1478afcb514eaa0d4b, type: 3}
  - {fileID: 21300000, guid: c7163a0df0cf808499c631c860d087ea, type: 3}
  - {fileID: 21300000, guid: 26cb5db51265b2a4e9d5b04e94eeedbb, type: 3}
  - {fileID: 21300000, guid: dc428516e9aa7d14996713917c94a4a9, type: 3}
  - {fileID: 21300000, guid: 209f401381b5e7340a381062587a6269, type: 3}
  - {fileID: 21300000, guid: 5c09ae5ffed009042b7672c93820b7fa, type: 3}
  - {fileID: 21300000, guid: 2ca301d42aa866847820ee656aa16eb0, type: 3}
  - {fileID: 21300000, guid: de0cb84d96ff3fa48a7f3b256e04c345, type: 3}
  - {fileID: 21300000, guid: f562cca12f666fe4282646032b86bc22, type: 3}
  - {fileID: 21300000, guid: dc49db061e59197488e01b8d2017712c, type: 3}
  - {fileID: 21300000, guid: 7aca89c232510f14c9498e67517f7085, type: 3}
  - {fileID: 21300000, guid: c23acfab3f47e1d42853c041b51c2c2c, type: 3}
  - {fileID: 21300000, guid: 3b7f46fd034b8804fbcccf0d5667156f, type: 3}
  - {fileID: 21300000, guid: 5ce9c238354a508478f90b5249d4a645, type: 3}
  - {fileID: 21300000, guid: 276246160a69e784b888289af355122c, type: 3}
  - {fileID: 21300000, guid: 9b632de6215111e42b3dda30165dc302, type: 3}
  - {fileID: 21300000, guid: 801ac94642d0b744b9f2571579a510c7, type: 3}
  - {fileID: 21300000, guid: 1553e68144a9c884cbeb9811df64684c, type: 3}
  - {fileID: 21300000, guid: ce6a05c5734edff49b02cf449e01faa3, type: 3}
  - {fileID: 21300000, guid: 87fa8f092c83034418b40b4c9f06969f, type: 3}
  - {fileID: 21300000, guid: cd552cf4d274a40488056009aa430256, type: 3}
  - {fileID: 21300000, guid: 721c2c07cd3f89549ae52eb41d4dd93b, type: 3}
  - {fileID: 21300000, guid: 2c77c1fb837ce4946a4a969c80b20764, type: 3}
  - {fileID: 21300000, guid: fc1b9e2a6561055418e1cde6a5648d59, type: 3}
  - {fileID: 21300000, guid: 54a4bf53ac4204c45b12ae385e7fb29b, type: 3}
  - {fileID: 21300000, guid: 2c5b2ff88a62c9e4f9dd543d28db4c65, type: 3}
  - {fileID: 21300000, guid: 3a280bc9b45d8b343b339e05a02046f7, type: 3}
  - {fileID: 21300000, guid: 79438a48c6a7b0a438a9a4cb62ccdcda, type: 3}
  - {fileID: 21300000, guid: 3697bb34f9d3b304c839ffedb776fd92, type: 3}
  - {fileID: 21300000, guid: cbf7f63593c2eb8489b13367d4879e34, type: 3}
  - {fileID: 21300000, guid: 10a301ea66d82d249894055264fd12b1, type: 3}
  - {fileID: 21300000, guid: 08c686f1fd0fbb14b86dbb0594926689, type: 3}
  - {fileID: 21300000, guid: de30b33958eb6d949a5c8ff52722c4bf, type: 3}
  - {fileID: 21300000, guid: c4e8195205e801a46bdce7bb52359acc, type: 3}
  - {fileID: 21300000, guid: c5f561ee2e7d1f043bb877a2017eda1b, type: 3}
  - {fileID: 21300000, guid: a4623d2363080234e9ebc26c4e8b18d6, type: 3}
  - {fileID: 21300000, guid: 8ac2cd90ce4deb4459ea1a4baeb908ed, type: 3}
  - {fileID: 21300000, guid: 990abd833a1c2534fa3835d60e08c401, type: 3}
  - {fileID: 21300000, guid: 8222f388ce5c0964ba442fa68ff77137, type: 3}
  - {fileID: 21300000, guid: fc2932f28c55e2a4d8ed9f6c8a7ebb82, type: 3}
  - {fileID: 21300000, guid: bc47407cdcdc9964cad2bc5308c66712, type: 3}
  - {fileID: 21300000, guid: 5029f14873c022a48ad985e98f06114b, type: 3}
  - {fileID: 21300000, guid: a49ca21d48ad2724e908f883b6f67175, type: 3}
  - {fileID: 21300000, guid: 2e88e9134d4ef504e9d539c02db7f8b8, type: 3}
  - {fileID: 21300000, guid: 4374bc2a884df9c47aed73c09c260d26, type: 3}
  - {fileID: 21300000, guid: 81e9570de50befb47bbfc4234a1446fd, type: 3}
  - {fileID: 21300000, guid: 5c0091e672b3a694f8b20e0aa403ebe1, type: 3}
  - {fileID: 21300000, guid: 7cf98e8e17014b54faf10420e870fa9d, type: 3}
  - {fileID: 21300000, guid: e504350db332fa14d827acba6cd13405, type: 3}
  - {fileID: 21300000, guid: 899fda941b4694a4aa0c5183cefbce0d, type: 3}
  - {fileID: 21300000, guid: 7a6e907ea6c19bc4b930f9d2ab98d010, type: 3}
  - {fileID: 21300000, guid: 1662db20487db3b48b475f253f8e4cfa, type: 3}
  - {fileID: 21300000, guid: 550a8e6956f71e14296269a4e735260e, type: 3}
  - {fileID: 21300000, guid: 09765b70d2ada854db0ca2e9f764a84a, type: 3}
  - {fileID: 21300000, guid: f67055e99f62a0e47b9b8703cd36d453, type: 3}
  - {fileID: 21300000, guid: a08a3ac43a9a41b4ea64b730738f2b60, type: 3}
  - {fileID: 21300000, guid: fa9e13993c8c7974aab4651602a077ba, type: 3}
  - {fileID: 21300000, guid: b83675cedfb6ea14bade751062cdf1f8, type: 3}
  - {fileID: 21300000, guid: 415617dad934ab54dadf3d954913b7f0, type: 3}
  - {fileID: 21300000, guid: a32d8392a4f50244585a08c78bd01f0d, type: 3}
  - {fileID: 21300000, guid: 46585f8403018904abd5a6f894cc46c2, type: 3}
  - {fileID: 21300000, guid: 098502a945252cd43a7a56af5a0131bd, type: 3}
  - {fileID: 21300000, guid: 34e9faeeffb2b804083f4c4d007c7392, type: 3}
  - {fileID: 21300000, guid: 742143a73180cee4394f98deefec4c7b, type: 3}
  - {fileID: 21300000, guid: 32a71b5a9daa10445afd8a899bb71020, type: 3}
  - {fileID: 21300000, guid: 7782ae028a2056b428dce24ae61ea053, type: 3}
  - {fileID: 21300000, guid: e111f4e31967e0341b8193c457e649f0, type: 3}
  - {fileID: 21300000, guid: 8134ac87a9d4d4849911544967fac8b8, type: 3}
  - {fileID: 21300000, guid: 8d456280ff7d98e4a87308f07d8160a5, type: 3}
  - {fileID: 21300000, guid: 5e2d757ebe8f5904f87fb4e6ddc68284, type: 3}
  - {fileID: 21300000, guid: 107fd4c75924da348b16ea1b1837f649, type: 3}
  - {fileID: 21300000, guid: 652404066683c234b99e6c3c18dce9f2, type: 3}
  - {fileID: 21300000, guid: b92f2c8b2b21c8e4f900c51c0e4f1e2f, type: 3}
  - {fileID: 21300000, guid: a238c35a6d9282749b1d361491054061, type: 3}
  - {fileID: 21300000, guid: e9e638db3c2a40d4cb624bcbdf50f51e, type: 3}
  - {fileID: 21300000, guid: 672c7cf58a922414c87f6793b4f48f6d, type: 3}
  - {fileID: 21300000, guid: 8f5cd3fb25ac84e49a918e3e2910dde9, type: 3}
  - {fileID: 21300000, guid: 9d629695e338aac4187384420bdacf74, type: 3}
  - {fileID: 21300000, guid: 4b655d144e3d8fb4c8a64cba17a6819c, type: 3}
  - {fileID: 21300000, guid: 6686f6b63a1fd6840a96b276444af381, type: 3}
  - {fileID: 21300000, guid: 3677c6b1fe2e5ed43a0798dd00143fee, type: 3}
  - {fileID: 21300000, guid: 526d863f67bfb3a4bbe356b6a1db1327, type: 3}
  - {fileID: 21300000, guid: df3655fa2413ffe4c95650f7f1e04527, type: 3}
  - {fileID: 21300000, guid: 3f5c9c4239845e1469dc097b40acad76, type: 3}
  - {fileID: 21300000, guid: 9e1dbe152bde75b4b9295058b4d9f14e, type: 3}
  - {fileID: 21300000, guid: a53d09fdca791a14bb3ad8e2629db8a6, type: 3}
  - {fileID: 21300000, guid: 395bcb8f47fc44f428690419de8f0798, type: 3}
  - {fileID: 21300000, guid: de1e3a801f0f3564fab34969227e7dc3, type: 3}
  - {fileID: 21300000, guid: 8817fd204a52b6745984ac217f38a0a2, type: 3}
  - {fileID: 21300000, guid: d34ae660383cf37499752c9c33af6ae5, type: 3}
  - {fileID: 21300000, guid: 9339d7f2733844349ad9b07757949f01, type: 3}
  - {fileID: 21300000, guid: f1331bb968d2eb94385ef3b9f7058bbe, type: 3}
  - {fileID: 21300000, guid: 24252beb547e04646bc19155a1a84bd4, type: 3}
  - {fileID: 21300000, guid: 9c796ae0349170146bfa91088c2ee879, type: 3}
  - {fileID: 21300000, guid: ce1b16390708c5240bae3487a806b521, type: 3}
  - {fileID: 21300000, guid: 986ad5dd9cf347240a369263dadfcdc5, type: 3}
  - {fileID: 21300000, guid: 36d1aa00b5186374e89a5eb801b92e72, type: 3}
  - {fileID: 21300000, guid: 1cb665625ec475147bfb8ce52f656e89, type: 3}
  - {fileID: 21300000, guid: 197812e8fe0eaec48954fbb872e688d6, type: 3}
  - {fileID: 21300000, guid: 9dc72774b8136d44fb0ef84701953038, type: 3}
  - {fileID: 21300000, guid: a61200f7642d74e4d9c0e97716a94d0b, type: 3}
  - {fileID: 21300000, guid: 7d7d9772ff19d2740a88cb8b3e99ab61, type: 3}
  - {fileID: 21300000, guid: 0caf954dc3d35f548b92ef94f28e762b, type: 3}
  - {fileID: 21300000, guid: eab00449195eaf342835868277898ba7, type: 3}
  - {fileID: 21300000, guid: 24bf5bad6ac5d0c4bb109d018c718493, type: 3}
  - {fileID: 21300000, guid: e1bf3de33bbd71f408bd489cb754c138, type: 3}
  - {fileID: 21300000, guid: 53d23add3e574884e818d924fab23721, type: 3}
  - {fileID: 21300000, guid: 27565391365f90d48b2b32f46d46628f, type: 3}
  - {fileID: 21300000, guid: a62728c006c75e548a2123451e55d3a5, type: 3}
  - {fileID: 21300000, guid: 75b51fdac9ee79649a013edfd879e3f7, type: 3}
  - {fileID: 21300000, guid: 33edaf68d3f2c174ba0a6e9a3b19dffb, type: 3}
  - {fileID: 21300000, guid: 6fb24431b7a6d3547aa22dc45d83b23c, type: 3}
  - {fileID: 21300000, guid: e8cb4a327d9230c4fb8b29301481f8c0, type: 3}
  - {fileID: 21300000, guid: f5d86e03706083b42a420731728c7cfd, type: 3}
  - {fileID: 21300000, guid: c4d6e96c52feb724cab0fb65b97735f7, type: 3}
  - {fileID: 21300000, guid: d781ed16f5bb62d48a3719e6ddb4ca18, type: 3}
  - {fileID: 21300000, guid: d1689f5bd1a5d28409a90a04b31e714a, type: 3}
  - {fileID: 21300000, guid: 8691ace9e91b14c49981eefa132aab9d, type: 3}
  - {fileID: 21300000, guid: f5caa8e4a79cb7c4cac612ab5745e446, type: 3}
  - {fileID: 21300000, guid: 6039a5dd099836f4097f7a064fc09e7d, type: 3}
  - {fileID: 21300000, guid: cc3d70bf2594e9a4ab18faa1a6960e4c, type: 3}
  - {fileID: 21300000, guid: 925658bda8cf23c4c88a61bfc5681c21, type: 3}
  - {fileID: 21300000, guid: e323068edf9a3014fb1af0ac83bde946, type: 3}
  - {fileID: 21300000, guid: c9f936afb17a11547834e52729c33162, type: 3}
  - {fileID: 21300000, guid: 4effd3065c103eb4884b51108b5b3bcc, type: 3}
  - {fileID: 21300000, guid: 692df466eb07c9f4f97401e46599d5d4, type: 3}
  - {fileID: 21300000, guid: 8a38e755ac014a140ac337ef041eec6b, type: 3}
  - {fileID: 21300000, guid: a07d617cbf9349147812576f3fbc07cb, type: 3}
  - {fileID: 21300000, guid: bea59069d2f46a54d93bfec635022708, type: 3}
  - {fileID: 21300000, guid: 2a065d4b08b9d9f4b9d42d3ca129cd93, type: 3}
  - {fileID: 21300000, guid: c9c61952c1b0da4448b88da81084a28b, type: 3}
  - {fileID: 21300000, guid: 2fe41b5bb533b8b4da3aebf8ca107957, type: 3}
  - {fileID: 21300000, guid: 9aa61b42c350e4b4baa4cc6200bb8ca0, type: 3}
  - {fileID: 21300000, guid: aa61eaea8e2042f4faf1cf1df1919171, type: 3}
  - {fileID: 21300000, guid: 0b5c35b034d630f4f97b6bbd4a8e62e8, type: 3}
  - {fileID: 21300000, guid: be11b0f89a129154cbe77c7afb4bcc62, type: 3}
  - {fileID: 21300000, guid: fbc11476dd528d749b7847fbc99bb02e, type: 3}
  - {fileID: 21300000, guid: af94a5541e2b91646a99e4be5351f264, type: 3}
  - {fileID: 21300000, guid: 6b1a7d179eaee924fa0b3cc84fe6bd2a, type: 3}
  - {fileID: 21300000, guid: 25696f2da39fc5046a262cf11fd8ecd4, type: 3}
  - {fileID: 21300000, guid: 0fb26fe6a4314174991dc31dec43340c, type: 3}
  - {fileID: 21300000, guid: a15241ed39b8c7542a462bfef469bc42, type: 3}
  - {fileID: 21300000, guid: 7e50a4571bbdf7d42a968454e86c21db, type: 3}
  - {fileID: 21300000, guid: 5ec86512131aa224cafe8deabc68a87f, type: 3}
  - {fileID: 21300000, guid: 2a33532d8ef44344c8951e25cfc1ecbc, type: 3}
  - {fileID: 21300000, guid: 20d2c672abbf717419865b8fe798569c, type: 3}
  - {fileID: 21300000, guid: b84cff929e480654b821971bce87258f, type: 3}
  - {fileID: 21300000, guid: 4e228ef8f41d07e4b9e0df0694543ade, type: 3}
  - {fileID: 21300000, guid: bc3952cf521031b40a16dd51215aa77f, type: 3}
  - {fileID: 21300000, guid: 0c38267fc7c6b4b47a054c8fd38016e8, type: 3}
  - {fileID: 21300000, guid: 46c9b7f6e90841044a582617b0243392, type: 3}
  - {fileID: 21300000, guid: e10767e9b29a53b43959ef157948bbb5, type: 3}
  - {fileID: 21300000, guid: 9832f3cd62020c14c8912d6a89a7f4f4, type: 3}
  - {fileID: 21300000, guid: 0fd0b2b975d8fd54392001e3e5ab9d6d, type: 3}
  - {fileID: 21300000, guid: 24ad0ba223d628f4f9f28ca56d44433f, type: 3}
  - {fileID: 21300000, guid: 848d0276abb6d1d4da959a46f4424467, type: 3}
  - {fileID: 21300000, guid: e75a31b9a8e115e479e1f80c3c733308, type: 3}
  - {fileID: 21300000, guid: 005f4b4616ef3b542a6a5d406e442c63, type: 3}
  - {fileID: 21300000, guid: d3b6be15b913f2e44bddc5e8482d1289, type: 3}
  - {fileID: 21300000, guid: 0572cd3788ffb9746a150b7a6745a1f6, type: 3}
  - {fileID: 21300000, guid: 893fc5f9586d55e40861b1dd41d043a5, type: 3}
  - {fileID: 21300000, guid: 9e65a7098b4119d4eb3c563eae1026f1, type: 3}
  - {fileID: 21300000, guid: f6cc4045a3b484a478d8f70399f5dcd0, type: 3}
  - {fileID: 21300000, guid: 0e09f401ce59ceb43aa1b9030aab275b, type: 3}
  - {fileID: 21300000, guid: 7e1c51833fb1b994696ab2b3a370fb8d, type: 3}
  - {fileID: 21300000, guid: 4f94edb44f62f4d48aa44719dd089714, type: 3}
  - {fileID: 21300000, guid: 8930f95574f2eea45844615a35252672, type: 3}
  - {fileID: 21300000, guid: 046261ef4bca27d4d90e1dccc3e931db, type: 3}
  - {fileID: 21300000, guid: 821dac2a9aa000b46abf05884d037352, type: 3}
  - {fileID: 21300000, guid: 137912bdeac5d4a4786717979d12e5ef, type: 3}
  - {fileID: 21300000, guid: b0ad2c24a554243438d41b546b7eeaab, type: 3}
  - {fileID: 21300000, guid: 16b000d8812d2a64a8955f02aab94f16, type: 3}
  - {fileID: 21300000, guid: 3e85bb649aeca61428d06476acd9d5c6, type: 3}
  - {fileID: 21300000, guid: 97a1f454c6d70c64a98cad9602e4e21c, type: 3}
  - {fileID: 21300000, guid: ba3cb6cb0a177c341a638033fece1e8d, type: 3}
  - {fileID: 21300000, guid: 25f63b984127339448f7134627adea82, type: 3}
  - {fileID: 21300000, guid: ad42bce6b4170b4429c890db201594ee, type: 3}
  - {fileID: 21300000, guid: 7073ac41935f75a42bec5721ef152d06, type: 3}
  - {fileID: 21300000, guid: 8b13f41bc821d994995a9d2ba9ea9404, type: 3}
  - {fileID: 21300000, guid: a3432211be92a37468d5951303cbafa7, type: 3}
  - {fileID: 21300000, guid: 94c695640069a90419b4ae17288517e5, type: 3}
  - {fileID: 21300000, guid: a9c4ed3f07471704ea829cb1dbed759e, type: 3}
  - {fileID: 21300000, guid: 190078ca02dc3fc48b83a4ef71af6509, type: 3}
  - {fileID: 21300000, guid: 9e9a1a69c95d6424aacb51b0a1b1e1ca, type: 3}
  - {fileID: 21300000, guid: 871b485b94a704a4cb6f6ce05e001603, type: 3}
  - {fileID: 21300000, guid: c348d420e2cbe064b99fe72cc484133d, type: 3}
  - {fileID: 21300000, guid: b3a90ea0070b3bd41b7cf5ac7fad744a, type: 3}
  - {fileID: 21300000, guid: 7acd15e410f186d4491b0bb32f6b6b53, type: 3}
  - {fileID: 21300000, guid: 82bb764a50f44ae4ba7c2f8e33bf27dc, type: 3}
  - {fileID: 21300000, guid: e12499020af66ec4dbd5f3878e3f84b0, type: 3}
  - {fileID: 21300000, guid: 23c4a5e4f14400548874dac5b5bf1fe8, type: 3}
  - {fileID: 21300000, guid: ab315bc61a52d1c4cbf2ce55c1e5cce7, type: 3}
  - {fileID: 21300000, guid: f806cf0836942434ab4e5e0e56fb5c75, type: 3}
  - {fileID: 21300000, guid: 29a727a3e5fadcd468bb3ad35706e426, type: 3}
  - {fileID: 21300000, guid: 12426d58f5ad68a43a52b3752a070935, type: 3}
  - {fileID: 21300000, guid: 74f725e8d5f66914188b557cb35955c4, type: 3}
  - {fileID: 21300000, guid: d7e838451b4a8954bb5d26db215c110c, type: 3}
  - {fileID: 21300000, guid: e807aaa6ee569224c98b78d3b6a07257, type: 3}
  - {fileID: 21300000, guid: 0c12d4c94fad0874bb572135318ee559, type: 3}
  - {fileID: 21300000, guid: 242de9e65abd23d4f9050576e87ade68, type: 3}
  - {fileID: 21300000, guid: f714ef1d689ae13478cb6825aa328a12, type: 3}
  - {fileID: 21300000, guid: 960d2ae4f2aa1e24fa55a1e20d6a251e, type: 3}
  - {fileID: 21300000, guid: 0973529416a70bc47b818d19c4e16d27, type: 3}
  - {fileID: 21300000, guid: 99feaef0f27c52b4082a84b25e75ecc2, type: 3}
  - {fileID: 21300000, guid: 30dc2bcc24b64b84281325972369dfd2, type: 3}
  - {fileID: 21300000, guid: 10effdab4f02ad14a9869f10f8b9d60a, type: 3}
  - {fileID: 21300000, guid: a6df3a086a390db45af60c4a7f37cfc0, type: 3}
  - {fileID: 21300000, guid: 42a40d45c3c33ee468d29eba5ee69aea, type: 3}
  - {fileID: 21300000, guid: 54171ee7a03146c4cb49acc6fff014be, type: 3}
  - {fileID: 21300000, guid: 5d58daa60311fce489d4f7ac51af8fe3, type: 3}
  - {fileID: 21300000, guid: a03a218d115eafe4088e9d6026dd400d, type: 3}
  - {fileID: 21300000, guid: e60fa61752ede1f4e940c487c2813644, type: 3}
  - {fileID: 21300000, guid: 4e3535830d4a1c74fb1165100c454b12, type: 3}
  - {fileID: 21300000, guid: 180b7697ceba5da4998eef1a230207e7, type: 3}
  - {fileID: 21300000, guid: 4609f67b82e265841b5ba8618f138ed6, type: 3}
  - {fileID: 21300000, guid: 603ceba3f46a36541b5fb83d33fa5cc1, type: 3}
  - {fileID: 21300000, guid: e7aa8cd14cc5ba24a957fe0d5f1ca4af, type: 3}
  - {fileID: 21300000, guid: fb8d0160f67fc744eaf30851a37740ff, type: 3}
  - {fileID: 21300000, guid: 097c3f6c6e2325f439da26660e714d9b, type: 3}
  - {fileID: 21300000, guid: 2c600a90c1ddf384d986401d9942a705, type: 3}
  - {fileID: 21300000, guid: d0f94052b563f364c8fefa65a6409e81, type: 3}
  - {fileID: 21300000, guid: d942333ee75bde148a066d371278e255, type: 3}
  - {fileID: 21300000, guid: 4063287975194b04ca0ba8278ec1c48c, type: 3}
  - {fileID: 21300000, guid: c4813dd57fdd4b640bdb6fc5db517312, type: 3}
  - {fileID: 21300000, guid: 1c46fbf6d7f14ec448201987c7e6f6f4, type: 3}
  - {fileID: 21300000, guid: 2386b28e1395a524fbf2fe56e150156a, type: 3}
  - {fileID: 21300000, guid: f6ec9b140470cf743908acd79cf3075b, type: 3}
  - {fileID: 21300000, guid: 054dc4240d8eab24080f52305c2f09d3, type: 3}
  - {fileID: 21300000, guid: a2f6521cd9d99f2458d06a12c49c63d9, type: 3}
  - {fileID: 21300000, guid: a6b5010848c82c342989ce33fd2034ab, type: 3}
  - {fileID: 21300000, guid: da1af02c54509d24eac7ef692aa78028, type: 3}
  - {fileID: 21300000, guid: 68cd0340a6eb72c408c3997698a98930, type: 3}
  - {fileID: 21300000, guid: 3fea6ba68823c894cbddbf75a15b5fba, type: 3}
  - {fileID: 21300000, guid: ffa316296a4470b479915438fee6a535, type: 3}
  - {fileID: 21300000, guid: d51301baf4a0e6f4098a9a6fd910ac9a, type: 3}
  - {fileID: 21300000, guid: eb9fce21be13b5c44b9dfd7d148c101c, type: 3}
  - {fileID: 21300000, guid: d35b6e0728fee7d4e91a10b1dfb06267, type: 3}
  - {fileID: 21300000, guid: 5a4696ed82c7e1f468b7755154fd8d2e, type: 3}
  - {fileID: 21300000, guid: 9b8a0fdebd4cffb4ebe0c61b9125b573, type: 3}
  - {fileID: 21300000, guid: bdcc39a875f435d4f82d35c8dcce5817, type: 3}
  - {fileID: 21300000, guid: 08b7f52b9c8cddd4c9c2a7ad78ce434f, type: 3}
  - {fileID: 21300000, guid: 2c1729e8c2e70fa418414a0c049eb325, type: 3}
  - {fileID: 21300000, guid: a19cf70daf094bc4da93ed17bc64bec9, type: 3}
  - {fileID: 21300000, guid: 5400726e3ea4b654abe4553cd7efa44a, type: 3}
  - {fileID: 21300000, guid: 1cfc06190b675f8459df436a5d0d0eef, type: 3}
  - {fileID: 21300000, guid: 877af031460d45f4ea8999b3717d2382, type: 3}
  - {fileID: 21300000, guid: c656ca1afe7aa4744831fc3bee127301, type: 3}
  - {fileID: 21300000, guid: c815e2f9b6cd3a247a3c5c62cebc9816, type: 3}
  - {fileID: 21300000, guid: 38627b52e861dfb46b842b6fba456163, type: 3}
  - {fileID: 21300000, guid: 6cd79dd8de679214a8cd1f832f800044, type: 3}
  - {fileID: 21300000, guid: 720b04598f95c8145a0a680fe4bb74d1, type: 3}
  - {fileID: 21300000, guid: 4522faaa3f9a1e64ab81bf37b84b08e5, type: 3}
  - {fileID: 21300000, guid: a051b7940d8a38841a96dc869cfbd2de, type: 3}
  - {fileID: 21300000, guid: 06cb1f8ce43648847b155977e6dd1503, type: 3}
  - {fileID: 21300000, guid: 2a79a4fb8f1dd4a4c972ab4bcea6ae1a, type: 3}
  - {fileID: 21300000, guid: 6b7392ad35349ef4eab99544d4d32c8c, type: 3}
  - {fileID: 21300000, guid: f62e03bf84be97c46ba6c671657571fa, type: 3}
  - {fileID: 21300000, guid: d808391e6493b2449be1931e17fe665e, type: 3}
  - {fileID: 21300000, guid: 7d1cdf5d7e0057f4594be608b9068a20, type: 3}
  - {fileID: 21300000, guid: 1daa8e3ffc6da9f4496ae564fa40baa6, type: 3}
  - {fileID: 21300000, guid: 3b213eb5a11d1a04c966c05286f0c0ab, type: 3}
  - {fileID: 21300000, guid: 3a64c1ff20aaaef47bb798903373bbd8, type: 3}
  - {fileID: 21300000, guid: b68fc7c51fc54f04585a9a1d89ba5b92, type: 3}
  - {fileID: 21300000, guid: d24833d55b06b584ea969ecb6380684b, type: 3}
  - {fileID: 21300000, guid: 45e1c582f410988498d406f6ae8f09d4, type: 3}
  - {fileID: 21300000, guid: 94c2f1217307d1f418feb64811c91176, type: 3}
  - {fileID: 21300000, guid: d0947d3481fae1a46b28ff1879137bb1, type: 3}
  - {fileID: 21300000, guid: 6e5c244013ff84e4ca7f6eeebb8c48e9, type: 3}
  - {fileID: 21300000, guid: f2dc1dd39901d0b4cb2f851353fe7e55, type: 3}
  - {fileID: 21300000, guid: 84b71aeffe2d89e4ba094c203a424c55, type: 3}
  - {fileID: 21300000, guid: ba994d31caf2ba748ade218a9e30e6d2, type: 3}
  - {fileID: 21300000, guid: 831cb1bb3d1a702478e676f2d3bf7b43, type: 3}
  - {fileID: 21300000, guid: 8a6074a03085bf842819d7984890acd5, type: 3}
  - {fileID: 21300000, guid: 0048418b7dd793447a4eaef5306f592b, type: 3}
  - {fileID: 21300000, guid: f2be78612ed9b8943bde29ea7838ca71, type: 3}
  - {fileID: 21300000, guid: fb5d9555963e864419747cde2c1a1540, type: 3}
  - {fileID: 21300000, guid: 9aa6c9c0e98729945a0cf8f6dabe8049, type: 3}
  - {fileID: 21300000, guid: 1a0a7a258aaa47745a2ebd5f05191538, type: 3}
  - {fileID: 21300000, guid: a567947a154ba204585258d9aea65705, type: 3}
  - {fileID: 21300000, guid: b76d94fe5c02fd5479c43e8ec30ce25c, type: 3}
  - {fileID: 21300000, guid: aa257e536b4f3ca4db6f1e9c20a138ef, type: 3}
  - {fileID: 21300000, guid: e714205743fa83c43b3087fedb934764, type: 3}
  - {fileID: 21300000, guid: c4292d375895a094ab075d6790e54d75, type: 3}
  m_PackedSpriteNamesToIndex:
  - 50163icon
  - 50076icon
  - 50056icon
  - 4039icon
  - 50160icon
  - 564icon
  - 50225icon
  - 50042icon
  - 50109icon
  - 50098icon
  - 50057icon
  - 3000icon
  - 50118icon
  - 50256icon
  - 50070icon
  - 1111icon
  - 50081icon
  - 50164icon
  - 4040icon
  - 50018icon
  - 50233icon
  - 50113icon
  - 5000icon
  - 50115icon
  - 4041icon
  - 50241icon
  - 50199icon
  - 50261icon
  - 50063icon
  - 50139icon
  - 5104icon
  - 50040icon
  - 50188icon
  - 50259icon
  - 50033icon
  - 50138icon
  - 50035icon
  - 50150icon
  - 3034icon
  - 575icon
  - 50254icon
  - 50240icon
  - 50043icon
  - 3043icon
  - 50189icon
  - 5036icon
  - 50062icon
  - 50108icon
  - 1042icon
  - 50212icon
  - 4100icon
  - 50226icon
  - 1039icon
  - 4038icon
  - 3032icon
  - 50230icon
  - 3108icon
  - 50097icon
  - 4033icon
  - 50071icon
  - 1030icon
  - 50257icon
  - 4002icon
  - 5106icon
  - 50213icon
  - 50183icon
  - 50016icon
  - 5003icon
  - 50112icon
  - 50274icon
  - 50032icon
  - 3115icon
  - 1108icon
  - 4003icon
  - 50075icon
  - 50017icon
  - 50069icon
  - 50192icon
  - 50231icon
  - 50234icon
  - 50090icon
  - 1006icon
  - 50101icon
  - 517icon
  - 1000icon
  - 50198icon
  - 3116icon
  - 50034icon
  - 50067icon
  - 574icon
  - 50038icon
  - 50269icon
  - 50132icon
  - 2icon
  - 507icon
  - 50061icon
  - 50232icon
  - 50195icon
  - 3042icon
  - 50059icon
  - 50268icon
  - 50221icon
  - 50250icon
  - 50140icon
  - 50114icon
  - 1114icon
  - 50248icon
  - 1031icon
  - 506icon
  - 50190icon
  - 5038icon
  - 50216icon
  - 50251icon
  - 3icon
  - 50218icon
  - 559icon
  - 50144icon
  - 50036icon
  - 4110icon
  - 50074icon
  - 50262icon
  - 5107icon
  - 1001icon
  - 50166icon
  - 50170icon
  - 1003icon
  - 3103icon
  - 50167icon
  - 50136icon
  - 50021icon
  - 5031icon
  - 50066icon
  - 50158icon
  - 50120icon
  - 3113icon
  - 50039icon
  - 50128icon
  - 3109icon
  - 5115icon
  - 50058icon
  - 50249icon
  - 50123icon
  - 568icon
  - 4047icon
  - 50141icon
  - 50020icon
  - 50177icon
  - 1115icon
  - 5002icon
  - 50245icon
  - 50220icon
  - 50191icon
  - 8icon
  - 4042icon
  - 50236icon
  - 50222icon
  - 50155icon
  - 50237icon
  - 3037icon
  - 50219icon
  - 50171icon
  - 50246icon
  - 50077icon
  - 50173icon
  - 50037icon
  - 50243icon
  - 50060icon
  - 4035icon
  - 50137icon
  - 50055icon
  - 50165icon
  - 50211icon
  - 50186icon
  - 562icon
  - 50215icon
  - 50172icon
  - 50110icon
  - 555icon
  - 50082icon
  - 50205icon
  - 50084icon
  - 50210icon
  - 50272icon
  - 50187icon
  - 582icon
  - 50093icon
  - 584icon
  - 515icon
  - 50179icon
  - 50127icon
  - 9icon
  - 50247icon
  - 50178icon
  - 50089icon
  - 50028icon
  - 50227icon
  - 6icon
  - 5116icon
  - 5033icon
  - 4114icon
  - 50229icon
  - 50242icon
  - 50088icon
  - 567icon
  - 5043icon
  - 50111icon
  - 50214icon
  - 5icon
  - 50085icon
  - 566icon
  - 505icon
  - 50087icon
  - 0icon
  - 50267icon
  - 50182icon
  - 50273icon
  - 50054icon
  - 50091icon
  - 50030icon
  - 1118icon
  - 50053icon
  - 50266icon
  - 3006icon
  - 50086icon
  - 50064icon
  - 50029icon
  - 50031icon
  - 50239icon
  - 553icon
  - 3110icon
  - 50122icon
  - 5041icon
  - 50105icon
  - 50022icon
  - 5117icon
  - 50174icon
  - 50223icon
  - 50168icon
  - 10icon
  - 4icon
  - 501icon
  - 50228icon
  - 50197icon
  - 50023icon
  - 1107icon
  - 50253icon
  - 50102icon
  - 4045icon
  - 50196icon
  - 50169icon
  - 50151icon
  - 1112icon
  - 1icon
  - 50270icon
  - 50159icon
  - 50135icon
  - 50208icon
  - 50107icon
  - 572icon
  - 50263icon
  - 50065icon
  - 50244icon
  - 50238icon
  - 50131icon
  - 3101icon
  - 50157icon
  - 550icon
  - 3040icon
  - 50203icon
  - 50185icon
  - 11icon
  - 4102icon
  - 50209icon
  - 4036icon
  - 50181icon
  - 50217icon
  - 1043icon
  - 551icon
  - 5037icon
  - 50184icon
  - 4101icon
  - 50202icon
  - 1117icon
  - 50068icon
  - 50052icon
  - 50162icon
  - 3100icon
  - 50079icon
  - 50235icon
  - 4051icon
  - 50175icon
  - 50143icon
  - 12icon
  - 50134icon
  - 509icon
  - 1116icon
  - 50080icon
  - 552icon
  - 50106icon
  - 50078icon
  - 508icon
  - 50161icon
  - 3106icon
  - 50051icon
  - 5005icon
  - 50252icon
  - 50121icon
  - 50117icon
  - 4037icon
  - 50255icon
  - 576icon
  - 5114icon
  - 50156icon
  - 50130icon
  - 50224icon
  - 50124icon
  - 4004icon
  - 50180icon
  - 50264icon
  - 50116icon
  - 50258icon
  - 50207icon
  - 50271icon
  - 50260icon
  - 50129icon
  - 4113icon
  - 3104icon
  - 50019icon
  - 50206icon
  - 50265icon
  - 5032icon
  - 5105icon
  - 50142icon
  - 50119icon
  - 40000icon
  m_Tag: Cards
  m_IsVariant: 0
