%YAML 1.1
%TAG !u! tag:unity3d.com,2011:
--- !u!687078895 &4343727234628468602
SpriteAtlas:
  m_ObjectHideFlags: 0
  m_PrefabParentObject: {fileID: 0}
  m_PrefabInternal: {fileID: 0}
  m_Name: Cards_P_3
  m_EditorData:
    textureSettings:
      anisoLevel: 1
      compressionQuality: 50
      maxTextureSize: 4096
      textureCompression: 1
      colorSpace: 1
      filterMode: 1
      generateMipMaps: 0
      readable: 0
      crunchedCompression: 0
    platformSettings:
    - m_BuildTarget: WebGL
      m_MaxTextureSize: 2048
      m_TextureFormat: 12
      m_TextureCompression: 1
      m_CompressionQuality: 50
      m_CrunchedCompression: 0
      m_AllowsAlphaSplitting: 0
      m_Overridden: 0
    packingParameters:
      paddingPower: 2
      blockOffset: 1
      allowAlphaSplitting: 0
      enableRotation: 0
      enableTightPacking: 0
    packedHash:
      serializedVersion: 2
      Hash: 14297dd8911ffcd1365fada0d54a75c4
    variantMultiplier: 1
    bindAsDefault: 0
    finalFormat: 12
    hashString: 14297dd8911ffcd1365fada0d54a75c4
    totalSpriteSurfaceArea: 1653106
    packables:
    - {fileID: 102900000, guid: c158d71f232ebb8408d6dda33c11cd27, type: 3}
    packedSpriteRenderDataKeys:
    - 6d7347db0d563a74d9f6d78444934769: 21300000
    - d5807fda4b9dde44c836a6a23ae97563: 21300000
    - 29d3ee7d08012e647b931fc019855621: 21300000
    - b5c157b68d902514ebe617eab2177f3a: 21300000
    - 16034a3442fda9046affa7af2c7468e2: 21300000
    - eb135ab5c9ba06b41ad41e685b4deb55: 21300000
    - e12d80a8f35be204389edc851aba5dda: 21300000
    - 67a00e1ea0b1630498e88fc0a08ad6a9: 21300000
    - 2c8790e23bc12df46a1762b0e8f14c83: 21300000
    - 15f025489b57acf4c877f9fd599090cf: 21300000
    - aa35ffebce850de4eb77efb26fd9b474: 21300000
    - 5d2b599eba6b5a641928f8f997bb6ca3: 21300000
    - 146a93a903a7db34db8e628ddc7dbb7d: 21300000
    - 143511e36b73a3e4a8ad8609d2809aa7: 21300000
    - aeb837a330857cf4d8ea465de663cbb9: 21300000
    - cc26b3b76f19cdd428a929e271f0c292: 21300000
    - b1effe9bfff55d14184fd23f93bc4ae7: 21300000
    - ef1ae71da608ba54a8c25dbe9d56cfd5: 21300000
    - 61d952f85ebfccb4496e8460d455aa7b: 21300000
    - 6984408b955cc5740917db3bc662186c: 21300000
    - a8305d9b81e578341b8087db2837be78: 21300000
    - fc901d80a3b14594883660cc39c4d246: 21300000
    - 2f72c939bbe066c4e9014033e1db2299: 21300000
    - 64016c9dea6d0754e8fd23cd44d55146: 21300000
    - d4ed3d8f86ee25544a8b66f5a7e01b64: 21300000
    - 2794d0f3ca4e5ef4baf97792cecfcd67: 21300000
  m_MasterAtlas: {fileID: 0}
  m_PackedSprites:
  - {fileID: 21300000, guid: 6d7347db0d563a74d9f6d78444934769, type: 3}
  - {fileID: 21300000, guid: d5807fda4b9dde44c836a6a23ae97563, type: 3}
  - {fileID: 21300000, guid: 29d3ee7d08012e647b931fc019855621, type: 3}
  - {fileID: 21300000, guid: b5c157b68d902514ebe617eab2177f3a, type: 3}
  - {fileID: 21300000, guid: 16034a3442fda9046affa7af2c7468e2, type: 3}
  - {fileID: 21300000, guid: eb135ab5c9ba06b41ad41e685b4deb55, type: 3}
  - {fileID: 21300000, guid: e12d80a8f35be204389edc851aba5dda, type: 3}
  - {fileID: 21300000, guid: 67a00e1ea0b1630498e88fc0a08ad6a9, type: 3}
  - {fileID: 21300000, guid: 2c8790e23bc12df46a1762b0e8f14c83, type: 3}
  - {fileID: 21300000, guid: 15f025489b57acf4c877f9fd599090cf, type: 3}
  - {fileID: 21300000, guid: aa35ffebce850de4eb77efb26fd9b474, type: 3}
  - {fileID: 21300000, guid: 5d2b599eba6b5a641928f8f997bb6ca3, type: 3}
  - {fileID: 21300000, guid: 146a93a903a7db34db8e628ddc7dbb7d, type: 3}
  - {fileID: 21300000, guid: 143511e36b73a3e4a8ad8609d2809aa7, type: 3}
  - {fileID: 21300000, guid: aeb837a330857cf4d8ea465de663cbb9, type: 3}
  - {fileID: 21300000, guid: cc26b3b76f19cdd428a929e271f0c292, type: 3}
  - {fileID: 21300000, guid: b1effe9bfff55d14184fd23f93bc4ae7, type: 3}
  - {fileID: 21300000, guid: ef1ae71da608ba54a8c25dbe9d56cfd5, type: 3}
  - {fileID: 21300000, guid: 61d952f85ebfccb4496e8460d455aa7b, type: 3}
  - {fileID: 21300000, guid: 6984408b955cc5740917db3bc662186c, type: 3}
  - {fileID: 21300000, guid: a8305d9b81e578341b8087db2837be78, type: 3}
  - {fileID: 21300000, guid: fc901d80a3b14594883660cc39c4d246, type: 3}
  - {fileID: 21300000, guid: 2f72c939bbe066c4e9014033e1db2299, type: 3}
  - {fileID: 21300000, guid: 64016c9dea6d0754e8fd23cd44d55146, type: 3}
  - {fileID: 21300000, guid: d4ed3d8f86ee25544a8b66f5a7e01b64, type: 3}
  - {fileID: 21300000, guid: 2794d0f3ca4e5ef4baf97792cecfcd67, type: 3}
  m_PackedSpriteNamesToIndex:
  - p_3_4041icon
  - p_3_4100icon
  - p_3_5037icon
  - p_3_4035icon
  - p_3_4038icon
  - p_3_4039icon
  - p_3_4051icon
  - p_3_4047icon
  - p_3_5005icon
  - p_3_5036icon
  - p_3_4113icon
  - p_3_4114icon
  - p_3_5032icon
  - p_3_4102icon
  - p_3_4042icon
  - p_3_5033icon
  - p_3_4101icon
  - p_3_4045icon
  - p_3_4037icon
  - p_3_4036icon
  - p_3_4110icon
  - p_3_5000icon
  - p_3_5031icon
  - p_3_5003icon
  - p_3_4040icon
  - p_3_5002icon
  m_Tag: Cards_P_3
  m_IsVariant: 0
